ISLR-R21._1 - 3 Exercise
…
3.1 SLR

data = MASS::Boston
data %<>% as_tibble() %>% print()

# A tibble: 506 × 14
      crim    zn indus  chas   nox    rm   age   dis   rad   tax ptratio black
     <dbl> <dbl> <dbl> <int> <dbl> <dbl> <dbl> <dbl> <int> <dbl>   <dbl> <dbl>
 1 0.00632  18    2.31     0 0.538  6.58  65.2  4.09     1   296    15.3  397.
 2 0.0273    0    7.07     0 0.469  6.42  78.9  4.97     2   242    17.8  397.
 3 0.0273    0    7.07     0 0.469  7.18  61.1  4.97     2   242    17.8  393.
 4 0.0324    0    2.18     0 0.458  7.00  45.8  6.06     3   222    18.7  395.
 5 0.0690    0    2.18     0 0.458  7.15  54.2  6.06     3   222    18.7  397.
 6 0.0298    0    2.18     0 0.458  6.43  58.7  6.06     3   222    18.7  394.
 7 0.0883   12.5  7.87     0 0.524  6.01  66.6  5.56     5   311    15.2  396.
 8 0.145    12.5  7.87     0 0.524  6.17  96.1  5.95     5   311    15.2  397.
 9 0.211    12.5  7.87     0 0.524  5.63 100    6.08     5   311    15.2  387.
10 0.170    12.5  7.87     0 0.524  6.00  85.9  6.59     5   311    15.2  387.
# ℹ 496 more rows
# ℹ 2 more variables: lstat <dbl>, medv <dbl>
…
slr_res %>% augment %>% print() %>% 
  ggplot() + aes(x = lstat, y = medv) + 
  geom_point() + 
  geom_abline(intercept = slr_res$coefficients[1], slope = slr_res$coefficients[2], size =1.1)

# A tibble: 506 × 8
    medv lstat .fitted .resid    .hat .sigma     .cooksd .std.resid
   <dbl> <dbl>   <dbl>  <dbl>   <dbl>  <dbl>       <dbl>      <dbl>
 1  24    4.98   29.8  -5.82  0.00426   6.22 0.00189        -0.939 
 2  21.6  9.14   25.9  -4.27  0.00246   6.22 0.000582       -0.688 
 3  34.7  4.03   30.7   3.97  0.00486   6.22 0.00100         0.641 
 4  33.4  2.94   31.8   1.64  0.00564   6.22 0.000198        0.264 
 5  36.2  5.33   29.5   6.71  0.00406   6.21 0.00238         1.08  
 6  28.7  5.21   29.6  -0.904 0.00413   6.22 0.0000440      -0.146 
 7  22.9 12.4    22.7   0.155 0.00198   6.22 0.000000620     0.0250
 8  27.1 19.2    16.4  10.7   0.00362   6.20 0.00544         1.73  
 9  16.5 29.9     6.12 10.4   0.0136    6.20 0.0194          1.68  
10  18.9 17.1    18.3   0.592 0.00274   6.22 0.0000125       0.0954
# ℹ 496 more rows
…
This looks like not a linear relationship actually; lets confirm this with our residual plot. Since this is a SLR i can plot \(x\) vs \(e_i\).

slr_res %>% augment %>% print() %>% 
  ggplot() + aes(x = .fitted, y = .resid) + geom_point() + geom_smooth(se=F) -> p1

# A tibble: 506 × 8
    medv lstat .fitted .resid    .hat .sigma     .cooksd .std.resid
   <dbl> <dbl>   <dbl>  <dbl>   <dbl>  <dbl>       <dbl>      <dbl>
 1  24    4.98   29.8  -5.82  0.00426   6.22 0.00189        -0.939 
 2  21.6  9.14   25.9  -4.27  0.00246   6.22 0.000582       -0.688 
 3  34.7  4.03   30.7   3.97  0.00486   6.22 0.00100         0.641 
 4  33.4  2.94   31.8   1.64  0.00564   6.22 0.000198        0.264 
 5  36.2  5.33   29.5   6.71  0.00406   6.21 0.00238         1.08  
 6  28.7  5.21   29.6  -0.904 0.00413   6.22 0.0000440      -0.146 
 7  22.9 12.4    22.7   0.155 0.00198   6.22 0.000000620     0.0250
 8  27.1 19.2    16.4  10.7   0.00362   6.20 0.00544         1.73  
 9  16.5 29.9     6.12 10.4   0.0136    6.20 0.0194          1.68  
10  18.9 17.1    18.3   0.592 0.00274   6.22 0.0000125       0.0954
# ℹ 496 more rows

slr_res %>% augment %>% print() %>% 
  ggplot() + aes(x = .fitted, y = .std.resid) + geom_point() + geom_smooth(se=F) -> p2

# A tibble: 506 × 8
    medv lstat .fitted .resid    .hat .sigma     .cooksd .std.resid
   <dbl> <dbl>   <dbl>  <dbl>   <dbl>  <dbl>       <dbl>      <dbl>
 1  24    4.98   29.8  -5.82  0.00426   6.22 0.00189        -0.939 
 2  21.6  9.14   25.9  -4.27  0.00246   6.22 0.000582       -0.688 
 3  34.7  4.03   30.7   3.97  0.00486   6.22 0.00100         0.641 
 4  33.4  2.94   31.8   1.64  0.00564   6.22 0.000198        0.264 
 5  36.2  5.33   29.5   6.71  0.00406   6.21 0.00238         1.08  
 6  28.7  5.21   29.6  -0.904 0.00413   6.22 0.0000440      -0.146 
 7  22.9 12.4    22.7   0.155 0.00198   6.22 0.000000620     0.0250
 8  27.1 19.2    16.4  10.7   0.00362   6.20 0.00544         1.73  
 9  16.5 29.9     6.12 10.4   0.0136    6.20 0.0194          1.68  
10  18.9 17.1    18.3   0.592 0.00274   6.22 0.0000125       0.0954
# ℹ 496 more rows
…
