ISLR-R21._1 - 2 Linear Regression
…
2  Linear Regression

We will predict quantitative response.

advertising = read_csv("./data/Advertising.csv") %>% as_tibble %>% select(-1)
advertising

# A tibble: 200 × 4
      TV radio newspaper sales
   <dbl> <dbl>     <dbl> <dbl>
 1 230.   37.8      69.2  22.1
 2  44.5  39.3      45.1  10.4
 3  17.2  45.9      69.3   9.3
 4 152.   41.3      58.5  18.5
 5 181.   10.8      58.4  12.9
 6   8.7  48.9      75     7.2
 7  57.5  32.8      23.5  11.8
 8 120.   19.6      11.6  13.2
 9   8.6   2.1       1     4.8
10 200.    2.6      21.2  10.6
# ℹ 190 more rows
…
Lets now estimate population parameters for each of these data and plot them

data_r = tibble(
  y_r1,x_r1,y_r2,x_r2,y_r3,x_r3,y_r4,x_r4, y_r5,x_r5,y_r6,x_r6
)
data_r

# A tibble: 100 × 12
     y_r1   x_r1   y_r2    x_r2   y_r3   x_r3  y_r4   x_r4   y_r5    x_r5  y_r6
    <dbl>  <dbl>  <dbl>   <dbl>  <dbl>  <dbl> <dbl>  <dbl>  <dbl>   <dbl> <dbl>
 1  5.99   1.11   0.807 -0.263   8.82   1.80  -3.05 -1.52   7.64   1.68   6.49 
 2  6.53   1.35   3.74   0.141   6.23   1.92   5.11  1.27   8.71   2      7.75 
 3  6.28   1.31   2.16  -0.0202 -0.272 -0.707  2.39 -0.101  4.59   0.909  1.21 
 4  1.52  -0.141 -0.178 -0.990   5.45   0.788 -4.55 -1.84  -1.41  -1.11   0.478
 5  0.708 -1.03  -0.464 -0.586   0.361 -0.343 -3.31 -1.15   9.59   1.88   2.64 
 6  2.05   0.343  4.12   0.788  -1.09  -1.11  -5.13 -1.96   0.723 -0.586  4.10 
 7  4.54   0.747  5.44   1.60    0.479 -0.707  2.27  0.182  2.29  -0.263  3.68 
 8  1.69  -0.626  8.02   1.80   -2.23  -1.64   1.55  0.222 -1.45  -0.990  5.08 
 9  2.84   0.869  1.02   0.384   4.04   0.949  3.34 -0.747 -2.21  -0.828  8.33 
10 -0.933 -0.990  3.52   0.505  -0.471 -0.505 -1.07 -0.869  1.47   0.0606 2.45 
# ℹ 90 more rows
# ℹ 1 more variable: x_r6 <dbl>
…
The RSE provides an absolute measure of lack of fit of the model to the data. \(R^2\) provides an alternative measure of fit. It takes the form of a proportion–the proportion of variance explained–and so its always \(0\leq R^2 \leq 1\) and is independent of the scale of \(Y\)–as opposed to RSE.

\[
R^2 = \frac{TSS - RSS}{TSS} = 1 - \frac{RSS}{TSS}
\] (3.17)

where \(\text{TSS} = \sum(y_i - \bar{y})^2\) is the total sun of squares and \(\text{RSS} = \sum(y_i - \hat{y_i})^2\). TSS measures the total variaance in the response \(Y\); and can be thought of as the amount of varaiblity ingerent in the response before the regression is performed. RSS measures the amount of varaiblity that is left unexplained after performing the regression. So TSS - RSS measures the amount of variability in the response that is explained by performing the regression, and \(R^2\) measures the proportion of variability in \(Y\) that can be explained using \(X\). As \(R^2\) gets closer to 1, a large proportion of the variability in the response has been explained by the regression. A number near 0 indicates that the regression did not explain much of the variablity in the response; this might occur because the linear model is wrong, or the inherit error \(\sigma^2 = \text{RSE}^2\) is high, or both.

Lets calculate \(R^2\) of our estimation on advertising data with the model \(\hat{sales_i} = \hat{\beta_0} + \hat{\beta_1}TV_i\)

advertising %>% 
  mutate(sales_hat = beta_0_hat_adv + beta_1_hat_adv * TV) -> advertising
advertising

# A tibble: 200 × 5
      TV radio newspaper sales sales_hat
   <dbl> <dbl>     <dbl> <dbl>     <dbl>
 1 230.   37.8      69.2  22.1     18.0 
 2  44.5  39.3      45.1  10.4      9.15
 3  17.2  45.9      69.3   9.3      7.85
 4 152.   41.3      58.5  18.5     14.2 
 5 181.   10.8      58.4  12.9     15.6 
 6   8.7  48.9      75     7.2      7.45
 7  57.5  32.8      23.5  11.8      9.77
 8 120.   19.6      11.6  13.2     12.7 
 9   8.6   2.1       1     4.8      7.44
10 200.    2.6      21.2  10.6     16.5 
# ℹ 190 more rows
…
[1] 5417.149

R2 = (TSS - RSS) / TSS
R2

[1] 0.6118751

61% of the variablity in sales is explained by a linear regression on TV.

what about our data

data

# A tibble: 100 × 3
        y      x  y_hat
    <dbl>  <dbl>  <dbl>
 1 -0.591 -0.667 -0.159
 2  2.69   0.222  2.56 
 3 -2.61  -1.03  -1.27 
 4 -3.54  -1.39  -2.38 
 5  1.54  -0.545  0.212
 6  2.22   0.384  3.05 
 7 -1.34  -1.56  -2.88 
 8  6.81   1.39   6.14 
 9  6.26   1.43   6.27 
10  2.39   0.465  3.30 
# ℹ 90 more rows
…
On the other hand, a prediction interval can be used to quantify the uncertainty surrounding sales for a particular city. Given that $100,000 is spent on TV advertising and $20,000 is spent on radio advertising in that city the 95% prediction interval is \([7,930, 14,580]\). We interpret this to mean that 95% of intervals of this form will contain the true value of \(Y\) for this city. Note that both intervals are centered at 11,256, but that the prediction intervaş is substantially wider than the confidence interval, reflecting the increased uncertainty about sales for a given city in comparison to the average sales over many locations.

2.3 Other Considerations in the Regression Model

2.3.1 Qualitative Predictors

In practice not all variables are quantitative; some predictors are qualitative.

Check out the Credit data set

Credit = read.csv("./data/Credit.csv") %>% as_tibble
Credit

# A tibble: 400 × 12
      ID Income Limit Rating Cards   Age Education Gender   Student Married
   <int>  <dbl> <int>  <int> <int> <int>     <int> <chr>    <chr>   <chr>  
 1     1   14.9  3606    283     2    34        11 " Male"  No      Yes    
 2     2  106.   6645    483     3    82        15 "Female" Yes     Yes    
 3     3  105.   7075    514     4    71        11 " Male"  No      No     
 4     4  149.   9504    681     3    36        11 "Female" No      No     
 5     5   55.9  4897    357     2    68        16 " Male"  No      Yes    
 6     6   80.2  8047    569     4    77        10 " Male"  No      No     
 7     7   21.0  3388    259     2    37        12 "Female" No      No     
 8     8   71.4  7114    512     2    87         9 " Male"  No      No     
 9     9   15.1  3300    266     5    66        13 "Female" No      No     
10    10   71.1  6819    491     3    41        19 "Female" Yes     Yes    
# ℹ 390 more rows
# ℹ 2 more variables: Ethnicity <chr>, Balance <int>
…
