ISLR-R21._1 - 3 Classification
…
Rows: 10000 Columns: 4
── Column specification ────────────────────────────────────────────────────────
Delimiter: ","
chr (2): default, student
dbl (2): balance, income

ℹ Use `spec()` to retrieve the full column specification for this data.
ℹ Specify the column types or set `show_col_types = FALSE` to quiet this message.

default %<>% 
  mutate_if(is.character, ~as.factor(.)) %>% 
  print()

# A tibble: 10,000 × 4
   default student balance income
   <fct>   <fct>     <dbl>  <dbl>
 1 No      No         730. 44362.
 2 No      Yes        817. 12106.
 3 No      No        1074. 31767.
 4 No      No         529. 35704.
 5 No      No         786. 38463.
 6 No      Yes        920.  7492.
 7 No      No         826. 24905.
 8 No      Yes        809. 17600.
 9 No      No        1161. 37469.
10 No      No           0  29275.
# ℹ 9,990 more rows
…
default %>% 
  mutate(default = ifelse(default == "Yes",1,0)) %>% 
  print() %>% 
  lm(default~balance,.) %>% 
  summary()

# A tibble: 10,000 × 4
   default student balance income
     <dbl> <fct>     <dbl>  <dbl>
 1       0 No         730. 44362.
 2       0 Yes        817. 12106.
 3       0 No        1074. 31767.
 4       0 No         529. 35704.
 5       0 No         786. 38463.
 6       0 Yes        920.  7492.
 7       0 No         826. 24905.
 8       0 Yes        809. 17600.
 9       0 No        1161. 37469.
10       0 No           0  29275.
# ℹ 9,990 more rows
…
exp(-10.6513 + 0.0055 * 2000) / (1 + exp(-10.6513 + 0.0055 * 2000))

[1] 0.5863023

much higher 58%.

We can get all the predictions for our training data set form

default_workflow %>% 
  fit(data=default) %>% 
  augment(new_data = default) %>% print() %>% 
  count(.pred_class)

# A tibble: 10,000 × 7
   default student balance income .pred_class .pred_No .pred_Yes
   <fct>   <fct>     <dbl>  <dbl> <fct>          <dbl>     <dbl>
 1 No      No         730. 44362. No             0.999 0.00131  
 2 No      Yes        817. 12106. No             0.998 0.00211  
 3 No      No        1074. 31767. No             0.991 0.00859  
 4 No      No         529. 35704. No             1.00  0.000434 
 5 No      No         786. 38463. No             0.998 0.00178  
 6 No      Yes        920.  7492. No             0.996 0.00370  
 7 No      No         826. 24905. No             0.998 0.00221  
 8 No      Yes        809. 17600. No             0.998 0.00202  
 9 No      No        1161. 37469. No             0.986 0.0138   
10 No      No           0  29275. No             1.00  0.0000237
# ℹ 9,990 more rows
…
discrim_linear() %>% 
  set_mode("classification") %>% 
  set_engine("MASS") -> lda_spec

lda_recipe <- recipe(class~x,data =d)

workflow() %>% 
  add_model(lda_spec) %>% 
  add_recipe(lda_recipe) -> lda_workflow

lda_workflow %>% 
  fit(data = d) %>% 
  augment(new_data=d) 

# A tibble: 40 × 5
        x class .pred_class .pred_1    .pred_2
    <dbl> <fct> <fct>         <dbl>      <dbl>
 1 -2.73  1     1             1.00  0.0000459 
 2  0.327 1     2             0.155 0.845     
 3 -2.21  1     1             1.00  0.000340  
 4 -2.17  1     1             1.00  0.000391  
 5 -3.25  1     1             1.00  0.00000637
 6 -1.52  1     1             0.995 0.00463   
 7 -1.57  1     1             0.996 0.00393   
 8 -1.88  1     1             0.999 0.00119   
 9 -1.36  1     1             0.991 0.00869   
10 -0.822 1     1             0.937 0.0633    
# ℹ 30 more rows
…
Coefficients of linear discriminants:
                    LD1
balance     0.002244397
studentYes -0.249059498

one thing we can look in LDA outpit is the group means. We see that defaulted people have 2 times balance than not defaulted. % of students are higher for defaulted people.

lda_workflow %>% 
  fit(data = default) %>% 
  augment(new_data =default)

# A tibble: 10,000 × 7
   default student balance income .pred_class .pred_No .pred_Yes
   <fct>   <fct>     <dbl>  <dbl> <fct>          <dbl>     <dbl>
 1 No      No         730. 44362. No             0.997  0.00313 
 2 No      Yes        817. 12106. No             0.997  0.00281 
 3 No      No        1074. 31767. No             0.984  0.0156  
 4 No      No         529. 35704. No             0.999  0.00122 
 5 No      No         786. 38463. No             0.996  0.00407 
 6 No      Yes        920.  7492. No             0.995  0.00454 
 7 No      No         826. 24905. No             0.995  0.00491 
 8 No      Yes        809. 17600. No             0.997  0.00270 
 9 No      No        1161. 37469. No             0.977  0.0234  
10 No      No           0  29275. No             1.00   0.000102
# ℹ 9,990 more rows
…
The Bayes classfier works by assignig an observation to the class for which the posterior probability \(p_k(X)\) is greatest. In the two-class case, this amounts to assigning an observation to the default class if

\[
Pr(default = Yes | X = x) > 0.5
\]

lda_workflow %>% 
  fit(data =default) %>% 
  augment(new_data = default) %>% 
  filter(.pred_Yes > 0.45, .pred_Yes < 0.55)

# A tibble: 39 × 7
   default student balance income .pred_class .pred_No .pred_Yes
   <fct>   <fct>     <dbl>  <dbl> <fct>          <dbl>     <dbl>
 1 Yes     No        1964. 39055. Yes            0.488     0.512
 2 Yes     No        1992. 42133. Yes            0.456     0.544
 3 Yes     No        1981. 28128. Yes            0.468     0.532
 4 Yes     No        1964. 50554. Yes            0.489     0.511
 5 Yes     No        1972. 34363. Yes            0.479     0.521
 6 No      Yes       2027. 20470. No             0.545     0.455
 7 No      Yes       2052. 13131. No             0.516     0.484
 8 Yes     Yes       2036. 14436. No             0.535     0.465
 9 Yes     No        1923. 56203. No             0.537     0.463
10 No      No        1956. 45508. Yes            0.499     0.501
# ℹ 29 more rows
…
