ISLR-R21._1 - 3 Summary: Linear Regression
…
advertising = read_csv("./data/Advertising.csv", col_select = -1)

New names:
Rows: 200 Columns: 4
── Column specification
──────────────────────────────────────────────────────── Delimiter: "," dbl
(4): TV, radio, newspaper, sales
ℹ Use `spec()` to retrieve the full column specification for this data. ℹ
Specify the column types or set `show_col_types = FALSE` to quiet this message.
• `` -> `...1`

advertising

# A tibble: 200 × 4
      TV radio newspaper sales
   <dbl> <dbl>     <dbl> <dbl>
 1 230.   37.8      69.2  22.1
 2  44.5  39.3      45.1  10.4
 3  17.2  45.9      69.3   9.3
 4 152.   41.3      58.5  18.5
 5 181.   10.8      58.4  12.9
 6   8.7  48.9      75     7.2
 7  57.5  32.8      23.5  11.8
 8 120.   19.6      11.6  13.2
 9   8.6   2.1       1     4.8
10 200.    2.6      21.2  10.6
# ℹ 190 more rows
…
Residual standard error: 3.259 on 198 degrees of freedom
Multiple R-squared:  0.6119,    Adjusted R-squared:  0.6099 
F-statistic: 312.1 on 1 and 198 DF,  p-value: < 2.2e-16

So our OLS regression is

\[
\hat{y_i} = 7.032 + 0.0475 \times TV
\] This means that additional $1,000 spending on TV will increase sales by 47.5 units on average.

Here is our \(\hat{y}\) values in .fitted column, residuals in .resid column,

lm_result %>% augment()

# A tibble: 200 × 8
   sales    TV .fitted .resid    .hat .sigma   .cooksd .std.resid
   <dbl> <dbl>   <dbl>  <dbl>   <dbl>  <dbl>     <dbl>      <dbl>
 1  22.1 230.    18.0   4.13  0.00970   3.25 0.00794       1.27  
 2  10.4  44.5    9.15  1.25  0.0122    3.27 0.000920      0.387 
 3   9.3  17.2    7.85  1.45  0.0165    3.27 0.00169       0.449 
 4  18.5 152.    14.2   4.27  0.00501   3.25 0.00434       1.31  
 5  12.9 181.    15.6  -2.73  0.00578   3.26 0.00205      -0.839 
 6   7.2   8.7    7.45 -0.246 0.0180    3.27 0.0000534    -0.0762
 7  11.8  57.5    9.77  2.03  0.0105    3.26 0.00208       0.627 
 8  13.2 120.    12.7   0.454 0.00549   3.27 0.0000538     0.140 
 9   4.8   8.6    7.44 -2.64  0.0181    3.26 0.00616      -0.818 
10  10.6 200.    16.5  -5.93  0.00690   3.24 0.0116       -1.83  
# ℹ 190 more rows
…
